Do Re Mi ...
Eduardo Marques
66
0.5 C 4 NATURAL
0.5 D 4 NATURAL
0.5 E 4 NATURAL
0.5 F 4 NATURAL
0.5 G 4 NATURAL
0.5 A 4 NATURAL
0.5 B 4 NATURAL
0.5 C 5 NATURAL
0.4 E 5 NATURAL
0.1 S
0.25 B 4 NATURAL
0.25 C 5 NATURAL
0.4 D 5 NATURAL
0.1 S
0.25 C 5 NATURAL
0.25 B 4 NATURAL
0.4 A 4 NATURAL
0.1 S
0.25 A 4 NATURAL
0.25 C 5 NATURAL
0.4 E 5 NATURAL
0.1 S
0.25 D 5 NATURAL
0.25 C 5 NATURAL
0.65 B 4 NATURAL
0.1 S
0.25 C 5 NATURAL
0.4 D 5 NATURAL
0.1 S
0.4 E 5 NATURAL
0.1 S
0.4 C 5 NATURAL
0.1 S
0.4 A 4 NATURAL
0.1 S
0.25 A 4 NATURAL
0.25 A 4 NATURAL
0.25 B 4 NATURAL
0.25 C 5 NATURAL
0.65 D 5 NATURAL
0.1 S
0.25 F 5 NATURAL
0.5 A 5 NATURAL
0.25 G 5 NATURAL
0.25 F 5 NATURAL
0.65 E 5 NATURAL
0.1 S
0.25 C 5 NATURAL
0.4 E 5 NATURAL
0.1 S
0.25 D 5 NATURAL
0.25 C 5 NATURAL
0.4 B 4 NATURAL
0.1 S
0.25 B 4 NATURAL
0.25 C 5 NATURAL
0.4 D 5 NATURAL
0.1 S
0.4 E 5 NATURAL
0.1 S
0.4 C 5 NATURAL
0.1 S
0.4 A 4 NATURAL
0.1 S
0.4 A 4 NATURAL
0.5 S
